visualization
…
# Create proper date column
temp <- temp %>%
  mutate(date = as.Date(paste(year, week, 1), format="%Y %U %u"))

Rows: 472 Columns: 3
-- Column specification ------------------------------------------------------------------------------------------------
Delimiter: ","
dbl (3): year, week, t2m

i Use `spec()` to retrieve the full column specification for this data.
i Specify the column types or set `show_col_types = FALSE` to quiet this message.
# A tibble: 472 x 3
    year  week   t2m
   <dbl> <dbl> <dbl>
 1  2015     1  8.49
 2  2015     2  9.64
 3  2015     3 10.8 
 4  2015     4  9.61
 5  2015     5  7.75
 6  2015     6  7.67
 7  2015     7  8.12
 8  2015     8  9.15
 9  2015     9  9.83
10  2015    10  9.97
# i 462 more rows
# i Use `print(n = ...)` to see more rows
…
rm(world_mort)

print(mortality)

Rows: 34384 Columns: 6
-- Column specification ------------------------------------------------------------------------------------------------
Delimiter: ","
chr (3): iso3c, country_name, time_unit
dbl (3): year, time, deaths

i Use `spec()` to retrieve the full column specification for this data.
i Specify the column types or set `show_col_types = FALSE` to quiet this message.
# A tibble: 522 x 4
    year  week mortality start_date
   <dbl> <dbl>     <dbl> <date>    
 1  2015     1     15178 2015-01-05
 2  2015     2     15811 2015-01-12
 3  2015     3     15480 2015-01-19
 4  2015     4     14922 2015-01-26
 5  2015     5     15228 2015-02-02
 6  2015     6     15640 2015-02-09
 7  2015     7     15510 2015-02-16
 8  2015     8     15149 2015-02-23
 9  2015     9     14544 2015-03-02
10  2015    10     14211 2015-03-09
# i 512 more rows
# i Use `print(n = ...)` to see more rows
…
